/* XPM */
static const char *const pgicon_xpm[] = {
"32 32 528 2",
"  	c #4F4F4D",
". 	c #B0ADA4",
"+ 	c #B7B3A8",
"@ 	c #B5B1A6",
"# 	c #BAB4A8",
"$ 	c #BAB6AA",
"% 	c #C0B7AE",
"& 	c #C3BFB4",
"* 	c #C9C5BA",
"= 	c #CBC7BC",
"- 	c #CFCBC0",
"; 	c #D5CEC6",
"> 	c #D9D2CA",
", 	c #DDD6CE",
"' 	c #E0D9D1",
") 	c #E5DED6",
"! 	c #E7E3DA",
"~ 	c #E8E4DB",
"{ 	c #EBE7DE",
"] 	c #EFEBE2",
"^ 	c #F3EFE6",
"/ 	c #F7F4ED",
"( 	c #F5F4EF",
"_ 	c #EFEEEA",
": 	c #EBEAE6",
"< 	c #E8E4E1",
"[ 	c #E1E3E2",
"} 	c #E0DCDB",
"| 	c #D9D8D6",
"1 	c #D2D4CF",
"2 	c #EAEBE3",
"3 	c #878787",
"4 	c #323033",
"5 	c #5B5652",
"6 	c #5A5653",
"7 	c #5D5A53",
"8 	c #5E5A57",
"9 	c #615D5A",
"0 	c #615E57",
"a 	c #60615B",
"b 	c #65625D",
"c 	c #67645F",
"d 	c #696661",
"e 	c #6C6964",
"f 	c #6D6A65",
"g 	c #6D6C67",
"h 	c #706F6A",
"i 	c #74706D",
"j 	c #76726F",
"k 	c #76736E",
"l 	c #797572",
"m 	c #6E6D6B",
"n 	c #636260",
"o 	c #61615F",
"p 	c #5F5E5A",
"q 	c #5A5955",
"r 	c #5A5655",
"s 	c #53544E",
"t 	c #52534E",
"u 	c #595856",
"v 	c #3D3D3D",
"w 	c #272727",
"x 	c #181713",
"y 	c #1A1917",
"z 	c #191917",
"A 	c #1B191A",
"B 	c #1A1819",
"C 	c #1A1A1C",
"D 	c #181619",
"E 	c #19191B",
"F 	c #18181A",
"G 	c #18171C",
"H 	c #17161B",
"I 	c #16151A",
"J 	c #151419",
"K 	c #131217",
"L 	c #121116",
"M 	c #121117",
"N 	c #121214",
"O 	c #131416",
"P 	c #111216",
"Q 	c #121318",
"R 	c #0D0E13",
"S 	c #1D1B1C",
"T 	c #2B2C31",
"U 	c #172959",
"V 	c #0F255F",
"W 	c #021F57",
"X 	c #001355",
"Y 	c #001455",
"Z 	c #001357",
"` 	c #001159",
" .	c #00125A",
"..	c #01135B",
"+.	c #001156",
"@.	c #010D55",
"#.	c #000D56",
"$.	c #081D60",
"%.	c #112763",
"&.	c #092265",
"*.	c #1B2336",
"=.	c #2E3138",
"-.	c #0F2D6D",
";.	c #0F337D",
">.	c #214080",
",.	c #355389",
"'.	c #31548E",
").	c #3E5B95",
"!.	c #455F9C",
"~.	c #43609C",
"{.	c #425F9B",
"].	c #44619D",
"^.	c #45629E",
"/.	c #48629F",
"(.	c #4A639B",
"_.	c #4A649D",
":.	c #48639A",
"<.	c #49629A",
"[.	c #486199",
"}.	c #4A6197",
"|.	c #4B6097",
"1.	c #496096",
"2.	c #435A8E",
"3.	c #1F3B7A",
"4.	c #18347E",
"5.	c #052477",
"6.	c #1F273C",
"7.	c #383637",
"8.	c #0A2665",
"9.	c #143578",
"0.	c #A1AAAF",
"a.	c #E0DFDD",
"b.	c #E5E2DB",
"c.	c #E4E3DE",
"d.	c #E4E3DF",
"e.	c #E6E5E0",
"f.	c #E7E6E1",
"g.	c #E8E7E2",
"h.	c #E9E8E3",
"i.	c #EAE9E4",
"j.	c #ECE9E4",
"k.	c #EDEAE5",
"l.	c #F0EDE8",
"m.	c #EAEAE2",
"n.	c #EDEAE1",
"o.	c #ECECE2",
"p.	c #667999",
"q.	c #021C70",
"r.	c #011E6C",
"s.	c #292F3D",
"t.	c #373737",
"u.	c #0A2960",
"v.	c #0C3271",
"w.	c #A6ACBA",
"x.	c #E5E5E3",
"y.	c #E6E6E8",
"z.	c #E6E8E5",
"A.	c #E9E7E8",
"B.	c #EBE9EA",
"C.	c #ECEAEB",
"D.	c #EDEBEC",
"E.	c #EFEDEE",
"F.	c #F1EFF0",
"G.	c #EEEEEE",
"H.	c #EDEDED",
"I.	c #EFEFEF",
"J.	c #EEF0EF",
"K.	c #EBECEE",
"L.	c #ECEEED",
"M.	c #ECEBF0",
"N.	c #66789E",
"O.	c #021B6F",
"P.	c #051F6C",
"Q.	c #2B2E3D",
"R.	c #0D2A66",
"S.	c #0D3276",
"T.	c #A2AAB7",
"U.	c #E6E5E3",
"V.	c #E8E8E6",
"W.	c #E6E7E9",
"X.	c #E9E9EB",
"Y.	c #EBEBEB",
"Z.	c #ECECEC",
"`.	c #EDEFEE",
" +	c #EFF1F0",
".+	c #F0F0EE",
"++	c #F2F2F2",
"@+	c #F0F0F0",
"#+	c #F1F1F1",
"$+	c #F0F1F3",
"%+	c #F1F0F5",
"&+	c #F4EFF5",
"*+	c #F0F0F2",
"=+	c #EFF0F2",
"-+	c #63779C",
";+	c #072273",
">+	c #05236C",
",+	c #0A2962",
"'+	c #0C3177",
")+	c #A4ACB9",
"!+	c #E5E5E5",
"~+	c #F3F3F3",
"{+	c #F4F4F4",
"]+	c #F3F3F5",
"^+	c #F2F3F7",
"/+	c #60769D",
"(+	c #02186B",
"_+	c #04226B",
":+	c #2E323D",
"<+	c #0A2761",
"[+	c #0B3076",
"}+	c #A5ADBA",
"|+	c #E6E6E6",
"1+	c #F5F5F5",
"2+	c #F4F5F7",
"3+	c #F6F4F7",
"4+	c #F5F5F7",
"5+	c #F4F3F8",
"6+	c #62789F",
"7+	c #09256F",
"8+	c #2E303C",
"9+	c #0B2862",
"0+	c #0D3278",
"a+	c #A8B0BD",
"b+	c #E7E7E7",
"c+	c #E7E7E5",
"d+	c #E9E9E9",
"e+	c #F6F6F6",
"f+	c #F6F6F8",
"g+	c #61779E",
"h+	c #0A2375",
"i+	c #07256E",
"j+	c #2F323B",
"k+	c #383838",
"l+	c #0C2963",
"m+	c #A9B1BE",
"n+	c #E8E8E8",
"o+	c #E9E9E7",
"p+	c #EAEAEA",
"q+	c #F7F5F6",
"r+	c #F4F6F5",
"s+	c #F5F6F8",
"t+	c #60769F",
"u+	c #00176B",
"v+	c #002069",
"w+	c #EAEAE8",
"x+	c #F5F4F9",
"y+	c #6177A0",
"z+	c #042375",
"A+	c #30303A",
"B+	c #0B2A63",
"C+	c #AAB2BF",
"D+	c #EBEBE9",
"E+	c #F7F7F7",
"F+	c #092578",
"G+	c #05256E",
"H+	c #303038",
"I+	c #F5F7F6",
"J+	c #02246B",
"K+	c #2F3239",
"L+	c #0D2A64",
"M+	c #0E3379",
"N+	c #F7F5F8",
"O+	c #5F759E",
"P+	c #082779",
"Q+	c #07286F",
"R+	c #313237",
"S+	c #363636",
"T+	c #0A2866",
"U+	c #F3F1F2",
"V+	c #F4F2F3",
"W+	c #F6F4F5",
"X+	c #F5F3F4",
"Y+	c #6176A1",
"Z+	c #082374",
"`+	c #05236B",
" @	c #0B2967",
".@	c #A7AFBC",
"+@	c #F2F0F1",
"@@	c #00166A",
"#@	c #03246B",
"$@	c #303136",
"%@	c #343434",
"&@	c #0F367B",
"*@	c #F4F5F9",
"=@	c #6075A0",
"-@	c #092676",
";@	c #0A2870",
">@	c #2D3039",
",@	c #343537",
"'@	c #092966",
")@	c #ABB3C0",
"!@	c #051F73",
"~@	c #04256C",
"{@	c #36373B",
"]@	c #082767",
"^@	c #0D3479",
"/@	c #ACB4BF",
"(@	c #F3F4F6",
"_@	c #F4F4F6",
":@	c #6277A2",
"<@	c #011A6C",
"[@	c #02236A",
"}@	c #2D3037",
"|@	c #343539",
"1@	c #0A2969",
"2@	c #F4F4F2",
"3@	c #F3F4F8",
"4@	c #6477A1",
"5@	c #0B2675",
"6@	c #08266E",
"7@	c #2B2F3A",
"8@	c #34353A",
"9@	c #0C2B6B",
"0@	c #12397E",
"a@	c #F1F2F4",
"b@	c #62759F",
"c@	c #071D70",
"d@	c #04246D",
"e@	c #2E313A",
"f@	c #35363B",
"g@	c #10377A",
"h@	c #ABB3BE",
"i@	c #EAECEB",
"j@	c #63769E",
"k@	c #041D6D",
"l@	c #2C303C",
"m@	c #34343C",
"n@	c #0B2969",
"o@	c #15377E",
"p@	c #AAB5BB",
"q@	c #E4E4E2",
"r@	c #E4E5E9",
"s@	c #E5E7E6",
"t@	c #EDEDEF",
"u@	c #F1EFF2",
"v@	c #F2F1EF",
"w@	c #F1EFF4",
"x@	c #EEEFF1",
"y@	c #61749E",
"z@	c #06226C",
"A@	c #2C3039",
"B@	c #31343B",
"C@	c #163D80",
"D@	c #AEB5BF",
"E@	c #E3E1E6",
"F@	c #E6E2E1",
"G@	c #E4E4E4",
"H@	c #E8E6E7",
"I@	c #E8EAE7",
"J@	c #EAE8E9",
"K@	c #ECECEE",
"L@	c #65779F",
"M@	c #00196B",
"N@	c #061F6F",
"O@	c #2C303B",
"P@	c #30343F",
"Q@	c #0E3070",
"R@	c #1A3D81",
"S@	c #BEC3BF",
"T@	c #F5EFE1",
"U@	c #F9EFE5",
"V@	c #F8F2E6",
"W@	c #F9F3E7",
"X@	c #FAF2E5",
"Y@	c #FAF2E7",
"Z@	c #F9F2E8",
"`@	c #F7F3E8",
" #	c #FBF2E9",
".#	c #FEF5EC",
"+#	c #F7F0E6",
"@#	c #F5F1E8",
"##	c #F7F3EA",
"$#	c #F6F2E9",
"%#	c #F5F0EA",
"&#	c #F0F0E8",
"*#	c #F2F1EC",
"=#	c #F6F4E8",
"-#	c #FCF6EA",
";#	c #F4F1EA",
">#	c #687C9F",
",#	c #06236F",
"'#	c #05226E",
")#	c #2C2E3B",
"!#	c #2D2F3B",
"~#	c #113071",
"{#	c #082C76",
"]#	c #3D5989",
"^#	c #61799D",
"/#	c #5B759A",
"(#	c #5A71A3",
"_#	c #5570A5",
":#	c #546FA4",
"<#	c #526DA2",
"[#	c #526DA4",
"}#	c #536EA5",
"|#	c #506BA2",
"1#	c #4F6AA1",
"2#	c #4F69A2",
"3#	c #4B6AA0",
"4#	c #47679A",
"5#	c #4B649C",
"6#	c #4B619B",
"7#	c #47619A",
"8#	c #49649B",
"9#	c #50679B",
"0#	c #4A6099",
"a#	c #476096",
"b#	c #425A96",
"c#	c #19377D",
"d#	c #11327F",
"e#	c #072875",
"f#	c #21263C",
"g#	c #282D40",
"h#	c #012573",
"i#	c #032878",
"j#	c #001E74",
"k#	c #011470",
"l#	c #00146D",
"m#	c #000668",
"n#	c #040065",
"o#	c #000367",
"p#	c #000468",
"q#	c #000569",
"r#	c #00086D",
"s#	c #01096E",
"t#	c #000A6C",
"u#	c #00096E",
"v#	c #000A6B",
"w#	c #010B6A",
"x#	c #000C6A",
"y#	c #030B6D",
"z#	c #000867",
"A#	c #00146B",
"B#	c #133984",
"C#	c #002375",
"D#	c #001B73",
"E#	c #002071",
"F#	c #022275",
"G#	c #082976",
"H#	c #042574",
"I#	c #072376",
"J#	c #1E243C",
"K#	c #2C2F36",
"L#	c #22304B",
"M#	c #24324F",
"N#	c #273454",
"O#	c #283351",
"P#	c #283852",
"Q#	c #313F59",
"R#	c #34425C",
"S#	c #33415B",
"T#	c #35435D",
"U#	c #32405A",
"V#	c #304059",
"W#	c #333F59",
"X#	c #2F3D57",
"Y#	c #2E3C56",
"Z#	c #2B3B54",
"`#	c #293952",
" $	c #27374E",
".$	c #28374E",
"+$	c #2F3B51",
"@$	c #2A364C",
"#$	c #28344C",
"$$	c #263548",
"%$	c #26354C",
"&$	c #213148",
"*$	c #213047",
"=$	c #1F2A46",
"-$	c #272731",
";$	c #343331",
">$	c #413D3A",
",$	c #414139",
"'$	c #44413C",
")$	c #46433E",
"!$	c #45443F",
"~$	c #514E49",
"{$	c #57544F",
"]$	c #56514B",
"^$	c #57524E",
"/$	c #575651",
"($	c #585753",
"_$	c #595A55",
":$	c #5B5C57",
"<$	c #5A5C57",
"[$	c #5B5E57",
"}$	c #5A5D56",
"|$	c #5A5B56",
"1$	c #565B55",
"2$	c #565B57",
"3$	c #555553",
"4$	c #555752",
"5$	c #575556",
"6$	c #545653",
"7$	c #525451",
"8$	c #535552",
"9$	c #585953",
"0$	c #3C3C3C",
"a$	c #51504E",
"b$	c #9A938B",
"c$	c #948D83",
"d$	c #968D86",
"e$	c #998E88",
"f$	c #9B928B",
"g$	c #9E958E",
"h$	c #9F968F",
"i$	c #9F9892",
"j$	c #9E9791",
"k$	c #9B9692",
"l$	c #A19C98",
"m$	c #A9A5A2",
"n$	c #B0ACA9",
"o$	c #B4B3AE",
"p$	c #B8B7B2",
"q$	c #BCBBB6",
"r$	c #BEBEB6",
"s$	c #C4C1BA",
"t$	c #C6C1BB",
"u$	c #C5C2BB",
"v$	c #C7C4BD",
"w$	c #C4C5BF",
"x$	c #CBC2BB",
"y$	c #C6C3BA",
"z$	c #C5C5BD",
"A$	c #C5C3B7",
"B$	c #DAD7CE",
"C$	c #757472",
"  . + @ # $ % & * = - ; > , ' ) ! ~ { ] ^ / ( _ : < [ } | 1 2 3 ",
"4 5 6 7 8 9 0 a b c d e e f g h i j j k l l m n o p q r s t u v ",
"w x y z A B C D E E E E F F E C G H I I J K L M M N O P Q M R S ",
"T U V W X Y Z `  . .` ........ ... ..... . .` ` +.@.#.Z $.%.&.*.",
"=.-.;.>.,.'.).!.~.~.{.].].^././.(._._.:.:.(.<.[.}.|.1.2.3.4.5.6.",
"7.8.9.0.a.b.c.d.e.f.g.h.h.i.j.k.l.l.i.h.k.k.j.k.m.k.n.o.p.q.r.s.",
"t.u.v.w.x.y.z.A.B.C.C.C.C.D.D.E.E.F.G.H.I.H.H.G.J.K.L.M.N.O.P.Q.",
"t.R.S.T.U.V.W.X.Y.Z.Z.Z.H.G.`. +.+++@+@+#+@+$+$+%+&+*+=+-+;+>+s.",
"t.,+'+)+!+V.Z.Z.H.G.G.G.I.@+#+++~+~+++~+++@+++{+]+^+]+^+/+(+_+:+",
"t.<+[+}+|+V.Y.H.G.G.I.I.@+#+++~+~+{+~+~+{+~+{+1+2+3+4+5+6+;+7+8+",
"t.9+0+a+b+c+d+H.G.I.@+@+#+++++++{+1+{+{+{+1+1+1+e+f+f+2+g+h+i+j+",
"k+l+'+m+n+o+p+H.I.@+#+#+#+++++~+{+1+{+{+1+1+1+1+q+r+e+s+t+u+v+j+",
"t.9+'+m+n+w+p+Z.I.@+#+#+#+++++~+1+1+{+{+1+1+1+e+e+e+e+x+y+z+>+A+",
"t.B+0+C+d+D+Z.Z.H.I.@+#+++++++~+{+1+{+{+1+e+e+e+e+e+E+5+y+F+G+H+",
"t.9+'+a+d+D+Z.Z.H.G.@+++~+++++~+{+1+{+{+1+1+e+e+q+I+e+f+t+u+J+K+",
"t.L+M+m+d+w+Z.Z.G.G.I.#+++++++~+{+e+1+1+e+1+e+e+e+E+e+N+O+P+Q+R+",
"S+T+0+m+d+Y.Z.Z.H.G.I.I.#+~+++U+V+W+X+X+1+e+e+e+e+e+e+e+Y+Z+`+H+",
"S+ @0+.@d+p+Z.Z.Z.G.I.I.@+@+I.I.+@V+U+#+++{+e+e+f+2+q+E+Y+@@#@$@",
"%@ @&@m+d+p+Y.Z.H.G.G.I.G.H.G.I.@+++#+#+#+~+e+1+1+f+*@4+=@-@;@>@",
",@'@&@)@n+d+Y.Z.Z.H.G.I.G.H.H.G.@+#+@+#+#+~+1+1+4+2+4+4+=@!@~@=.",
"{@]@^@/@n+d+Y.Z.Y.Z.H.G.G.H.H.H.I.@+I.I.@+++{+1+4+(@_@_@:@<@[@}@",
"|@1@&@/@b+n+n+p+Y.Z.Z.H.H.Z.H.H.I.@+I.I.@+#+~+{+2@]+3@]+4@5@6@7@",
"8@9@0@/@|+b+n+d+p+Y.Z.Z.Z.Y.Y.H.G.I.I.I.I.I.++~+]+a@~+~+b@c@d@e@",
"f@1@g@h@|+|+b+n+d+d+p+i@Z.Y.p+Y.H.Z.G.G.H.H.@+++++a@$+++j@k@>+l@",
"m@n@o@p@q@r@|+s@b+n+d+p+Y.Y.o+V.C.Z.Z.G.Z.Y.t@u@v@w@x@t@y@>+z@A@",
"B@9@C@D@E@F@G@x.|+b+n+n+A.H@H@A.I@w+J@B.w+D+p+K@u@J. +C.L@M@N@O@",
"P@Q@R@S@T@U@V@W@X@X@Y@W@W@Z@`@`@ #.#+#@###$#%#&#*#=#-#;#>#,#'#)#",
"!#~#{#]#^#/#(#_#:#:#<#[#}#[#|#1#2#3#4#5#6#7#8#9#5#0#a#b#c#d#e#f#",
"g#h#i#j#k#l#m#n#o#p#p#q#r#s#r#t#u#v#w#x#y#z#A#B#C#D#E#F#G#H#I#J#",
"K#L#M#N#O#P#Q#R#S#S#S#R#T#R#U#V#W#X#Y#Z#`# $.$+$@$#$$$%$&$*$=$-$",
";$>$,$'$)$!$~${$]$^${$/$($_$:$<$[$}$|$:$<$1$2$3$4$5$6$7$8$t 9$0$",
"a$b$c$d$e$b$f$b$g$h$i$j$k$l$m$n$o$p$q$r$s$t$u$v$w$x$y$z$A$y$B$C$"};
